{
	"info": {
		"_postman_id": "866917ce-2c84-4e26-a838-ac468a730e51",
		"name": "Simple book API",
		"schema": "https://schema.getpostman.com/json/collection/v2.1.0/collection.json",
		"_exporter_id": "14791879"
	},
	"item": [
		{
			"name": "API Status",
			"event": [
				{
					"listen": "test",
					"script": {
						"exec": [
							"pm.test(\"Status code is 200\", () => {",
							"    pm.response.to.have.status(200);",
							"});",
							"",
							"const response = pm.response.json();",
							"",
							"console.log(response)",
							"console.log(response['status'])",
							"",
							"pm.test(\"Status should be OK\", () => {",
							"    pm.expect(response.status).to.eql(\"OK\")",
							"});",
							"",
							"postman.setNextRequest(\"List of books\")"
						],
						"type": "text/javascript"
					}
				}
			],
			"request": {
				"method": "GET",
				"header": [],
				"url": {
					"raw": "{{baseUrl}}/status/",
					"host": [
						"{{baseUrl}}"
					],
					"path": [
						"status",
						""
					]
				}
			},
			"response": []
		},
		{
			"name": "List of books",
			"event": [
				{
					"listen": "test",
					"script": {
						"exec": [
							"pm.test(\"Status code is 200\", () => {",
							"    pm.response.to.have.status(200);",
							"});",
							"",
							"const response = pm.response.json();",
							"",
							"const nonFictionBooks = response.filter((book) => book.available === true );",
							"",
							"",
							"const book = nonFictionBooks[0];",
							"pm.test(\"Book found\", () => {",
							"    pm.expect(book).to.be.an('object')",
							"    pm.expect(book.available).to.be.true",
							"    pm.expect(book.available).to.eql(true)",
							"    pm.expect(book.type).to.eql(\"non-fiction\")",
							"} )",
							"pm.globals.set(\"bookId\", nonFictionBooks[0].id);"
						],
						"type": "text/javascript"
					}
				}
			],
			"request": {
				"method": "GET",
				"header": [],
				"url": {
					"raw": "{{baseUrl}}/books?type=non-fiction",
					"host": [
						"{{baseUrl}}"
					],
					"path": [
						"books"
					],
					"query": [
						{
							"key": "type",
							"value": "non-fiction"
						}
					]
				}
			},
			"response": []
		},
		{
			"name": "Get Single book",
			"event": [
				{
					"listen": "test",
					"script": {
						"exec": [
							"pm.test(\"Status code is 200\", () => {",
							"    pm.response.to.have.status(200);",
							"});"
						],
						"type": "text/javascript"
					}
				}
			],
			"request": {
				"method": "GET",
				"header": [],
				"url": {
					"raw": "{{baseUrl}}/books/:id",
					"host": [
						"{{baseUrl}}"
					],
					"path": [
						"books",
						":id"
					],
					"variable": [
						{
							"key": "id",
							"value": "2"
						}
					]
				}
			},
			"response": []
		},
		{
			"name": "Order book",
			"event": [
				{
					"listen": "test",
					"script": {
						"exec": [
							"pm.test(\"Status code is 201\", () => {",
							"    pm.response.to.have.status(201);",
							"});",
							"",
							"const response = pm.response.json();",
							"",
							"pm.globals.set(\"orderId\", response.orderId);"
						],
						"type": "text/javascript"
					}
				}
			],
			"request": {
				"auth": {
					"type": "bearer",
					"bearer": [
						{
							"key": "token",
							"value": "{{accessToken}}",
							"type": "string"
						}
					]
				},
				"method": "POST",
				"header": [],
				"body": {
					"mode": "raw",
					"raw": "{\n    \"bookId\": 1,\n    \"customerName\": \"{{$randomFullName}}\"\n}",
					"options": {
						"raw": {
							"language": "json"
						}
					}
				},
				"url": {
					"raw": "{{baseUrl}}/orders",
					"host": [
						"{{baseUrl}}"
					],
					"path": [
						"orders"
					]
				}
			},
			"response": []
		},
		{
			"name": "Get all orders",
			"event": [
				{
					"listen": "test",
					"script": {
						"exec": [
							"pm.test(\"Status code is 200\", () => {",
							"    pm.response.to.have.status(200);",
							"});"
						],
						"type": "text/javascript"
					}
				}
			],
			"request": {
				"auth": {
					"type": "bearer",
					"bearer": [
						{
							"key": "token",
							"value": "{{accessToken}}",
							"type": "string"
						}
					]
				},
				"method": "GET",
				"header": [],
				"url": {
					"raw": "{{baseUrl}}/orders",
					"host": [
						"{{baseUrl}}"
					],
					"path": [
						"orders"
					]
				}
			},
			"response": []
		},
		{
			"name": "Get Single order",
			"event": [
				{
					"listen": "test",
					"script": {
						"exec": [
							"pm.test(\"Status code is 200\", () => {",
							"    pm.response.to.have.status(200);",
							"});"
						],
						"type": "text/javascript"
					}
				}
			],
			"request": {
				"auth": {
					"type": "bearer",
					"bearer": [
						{
							"key": "token",
							"value": "{{accessToken}}",
							"type": "string"
						}
					]
				},
				"method": "GET",
				"header": [],
				"url": {
					"raw": "{{baseUrl}}/orders/:id",
					"host": [
						"{{baseUrl}}"
					],
					"path": [
						"orders",
						":id"
					],
					"variable": [
						{
							"key": "id",
							"value": "y8ynVIeDHZ5NYkunE0vMO"
						}
					]
				}
			},
			"response": []
		},
		{
			"name": "Update Single order",
			"event": [
				{
					"listen": "test",
					"script": {
						"exec": [
							"pm.test(\"Status code is 204\", () => {",
							"    pm.response.to.have.status(204);",
							"});"
						],
						"type": "text/javascript"
					}
				}
			],
			"request": {
				"auth": {
					"type": "bearer",
					"bearer": [
						{
							"key": "token",
							"value": "{{accessToken}}",
							"type": "string"
						}
					]
				},
				"method": "PATCH",
				"header": [],
				"body": {
					"mode": "raw",
					"raw": "{\n    \"customerName\": \"Iqbal\"\n}",
					"options": {
						"raw": {
							"language": "json"
						}
					}
				},
				"url": {
					"raw": "{{baseUrl}}/orders/:orderId",
					"host": [
						"{{baseUrl}}"
					],
					"path": [
						"orders",
						":orderId"
					],
					"variable": [
						{
							"key": "orderId",
							"value": "y8ynVIeDHZ5NYkunE0vMO"
						}
					]
				}
			},
			"response": []
		},
		{
			"name": "Delete order",
			"event": [
				{
					"listen": "test",
					"script": {
						"exec": [
							"pm.test(\"Status code is 204\", () => {",
							"    pm.response.to.have.status(204);",
							"});",
							"",
							"postman.setNextRequest(null)"
						],
						"type": "text/javascript"
					}
				}
			],
			"request": {
				"auth": {
					"type": "bearer",
					"bearer": [
						{
							"key": "token",
							"value": "{{accessToken}}",
							"type": "string"
						}
					]
				},
				"method": "DELETE",
				"header": [],
				"url": {
					"raw": "{{baseUrl}}/orders/:orderId",
					"host": [
						"{{baseUrl}}"
					],
					"path": [
						"orders",
						":orderId"
					],
					"variable": [
						{
							"key": "orderId",
							"value": "{{orderId}}"
						}
					]
				}
			},
			"response": []
		},
		{
			"name": "Register API Clients",
			"request": {
				"method": "POST",
				"header": [],
				"body": {
					"mode": "raw",
					"raw": "{\n    \"clientName\": \"Iqbal\",\n    \"clientEmail\": \"iqbal@gmail.com\"\n}",
					"options": {
						"raw": {
							"language": "json"
						}
					}
				},
				"url": {
					"raw": "{{baseUrl}}/api-clients",
					"host": [
						"{{baseUrl}}"
					],
					"path": [
						"api-clients"
					]
				}
			},
			"response": []
		}
	],
	"event": [
		{
			"listen": "prerequest",
			"script": {
				"type": "text/javascript",
				"exec": [
					""
				]
			}
		},
		{
			"listen": "test",
			"script": {
				"type": "text/javascript",
				"exec": [
					""
				]
			}
		}
	],
	"variable": [
		{
			"key": "baseUrl",
			"value": "https://simple-books-api.glitch.me"
		},
		{
			"key": "accessToken",
			"value": "890eeabd70654b7749f7a5bb4fd909a2547f8cd0815f920760f9d7e1fc504ee6",
			"type": "string"
		}
	]
}